game_logic_tb.vcd
$date
	Tue Sep 02 15:57:56 2025
$end
$version
	Icarus Verilog
$end
$timescale
	1ps
$end
$scope module game_logic_tb $end
$var wire 1 ! timeout_start $end
$var wire 1 " ready_for_mole $end
$var wire 16 # points [15:0] $end
$var wire 1 $ ledx $end
$var reg 1 % clk $end
$var reg 1 & level_select $end
$var reg 1 ' reset_button_pressed $end
$var reg 1 ( rng_ready $end
$var reg 1 ) start_button_pressed $end
$var reg 1 * switchx $end
$var reg 1 + timeout $end
$var integer 32 , i [31:0] $end
$scope module dut $end
$var wire 1 % clk $end
$var wire 1 & level_select $end
$var wire 1 ' reset_button_pressed $end
$var wire 1 ( rng_ready $end
$var wire 1 ) start_button_pressed $end
$var wire 1 * switchx $end
$var wire 1 + timeout $end
$var wire 1 - start_button_edge $end
$var wire 1 . reset_button_edge $end
$var reg 9 / concurrent [8:0] $end
$var reg 3 0 current_state [2:0] $end
$var reg 1 $ ledx $end
$var reg 4 1 multiplier [3:0] $end
$var reg 3 2 next_state [2:0] $end
$var reg 16 3 points [15:0] $end
$var reg 1 " ready_for_mole $end
$var reg 1 4 reset_button $end
$var reg 1 5 start_button $end
$var reg 1 ! timeout_start $end
$scope begin reset_edge_detect $end
$upscope $end
$scope begin start_edge_detect $end
$upscope $end
$scope begin whac_a_mole_fsm_ff $end
$upscope $end
$scope begin whac_a_mole_fsm_output $end
$upscope $end
$scope begin whac_a_mole_next_state_logic $end
$upscope $end
$upscope $end
$scope task arm_mole $end
$upscope $end
$scope task do_one_hit $end
$upscope $end
$scope task do_one_miss $end
$upscope $end
$scope task press_reset $end
$upscope $end
$scope task press_start $end
$upscope $end
$upscope $end
$enddefinitions $end
#0
$dumpvars
x5
x4
bx 3
b0 2
bx 1
b0 0
bx /
x.
x-
bx ,
1+
0*
0)
0(
0'
0&
0%
0$
bx #
0"
0!
$end
#5000
b0 /
b1 1
b0 #
b0 3
0.
04
0-
05
1%
#10000
0%
#15000
1%
#20000
0%
#25000
1%
#30000
0%
#35000
1%
#40000
b1 2
1-
1)
0%
#45000
1"
b1 0
0-
15
1%
#50000
0)
0%
#55000
05
1%
#60000
b10 2
1(
0%
#65000
1!
1$
0"
b10 0
1%
#70000
0(
0%
#75000
1%
#80000
b11 2
1*
0%
#85000
0!
0$
b1 2
b11 0
1%
#90000
b1 2
0*
0%
#95000
1"
b1 /
b1 #
b1 3
b1 0
1%
#100000
b10 2
1(
0%
#105000
1!
1$
0"
b10 0
1%
#110000
b100 2
0+
0(
0%
#115000
0!
0$
b1 2
b100 0
1%
#120000
b1 2
1+
0%
#125000
1"
b0 /
b1 0
1%
#130000
b10 2
1(
0%
#135000
1!
1$
0"
b10 0
1%
#140000
0(
0%
#145000
1%
#150000
0%
#155000
1%
#160000
b0 2
1.
1'
0%
#165000
0!
0$
b0 0
0.
14
1%
#170000
0'
0%
#175000
b0 #
b0 3
04
1%
#180000
0%
#185000
1%
#190000
b1 2
1-
1)
0%
#195000
1"
b1 0
0-
15
1%
#200000
0)
0%
#205000
05
1%
#210000
b10 2
1(
b0 ,
0%
#215000
1!
1$
0"
b10 0
1%
#220000
b11 2
1*
0(
0%
#225000
0!
0$
b1 2
b11 0
1%
#230000
b1 2
0*
0%
#235000
1"
b1 /
b1 #
b1 3
b1 0
1%
#240000
b10 2
1(
b1 ,
0%
#245000
1!
1$
0"
b10 0
1%
#250000
b11 2
1*
0(
0%
#255000
0!
0$
b1 2
b11 0
1%
#260000
b1 2
0*
0%
#265000
1"
b10 /
b10 #
b10 3
b1 0
1%
#270000
b10 2
1(
b10 ,
0%
#275000
1!
1$
0"
b10 0
1%
#280000
b11 2
1*
0(
0%
#285000
0!
0$
b1 2
b11 0
1%
#290000
b1 2
0*
0%
#295000
1"
b11 /
b11 #
b11 3
b1 0
1%
#300000
b10 2
1(
b11 ,
0%
#305000
1!
1$
0"
b10 0
1%
#310000
b11 2
1*
0(
0%
#315000
0!
0$
b1 2
b11 0
1%
#320000
b1 2
0*
0%
#325000
1"
b100 /
b100 #
b100 3
b1 0
1%
#330000
b10 2
1(
b100 ,
0%
#335000
1!
1$
0"
b10 0
1%
#340000
b11 2
1*
0(
0%
#345000
0!
0$
b1 2
b11 0
1%
#350000
b1 2
0*
0%
#355000
1"
b101 /
b101 #
b101 3
b1 0
1%
#360000
b10 2
1(
b101 ,
0%
#365000
1!
1$
0"
b10 0
1%
#370000
b11 2
1*
0(
0%
#375000
0!
0$
b1 2
b11 0
1%
#380000
b1 2
0*
0%
#385000
1"
b110 /
b110 #
b110 3
b1 0
1%
#390000
b10 2
1(
b110 ,
0%
#395000
1!
1$
0"
b10 0
1%
#400000
b11 2
1*
0(
0%
#405000
0!
0$
b1 2
b11 0
1%
#410000
b1 2
0*
0%
#415000
1"
b111 /
b111 #
b111 3
b1 0
1%
#420000
b10 2
1(
b111 ,
0%
#425000
1!
1$
0"
b10 0
1%
#430000
b11 2
1*
0(
0%
#435000
0!
0$
b1 2
b11 0
1%
#440000
b1 2
0*
0%
#445000
1"
b1000 /
b1000 #
b1000 3
b1 0
1%
#450000
b10 2
1(
b1000 ,
0%
#455000
1!
1$
0"
b10 0
1%
#460000
b11 2
1*
0(
0%
#465000
0!
0$
b1 2
b11 0
1%
#470000
b1 2
0*
0%
#475000
1"
b1001 /
b1001 #
b1001 3
b1 0
1%
#480000
b10 2
1(
b1001 ,
0%
#485000
1!
1$
0"
b10 0
1%
#490000
b11 2
1*
0(
0%
#495000
0!
0$
b1 2
b11 0
1%
#500000
b1 2
0*
0%
#505000
1"
b1010 /
b1010 #
b1010 3
b1 0
1%
#510000
b10 2
1(
b1010 ,
0%
#515000
1!
1$
0"
b10 0
1%
#520000
b11 2
1*
0(
0%
#525000
0!
0$
b1 2
b11 0
1%
#530000
b1 2
0*
0%
#535000
1"
b1011 /
b1011 #
b1011 3
b1 0
1%
#540000
b1011 ,
0%
